[
  {
    "inputs": [
      {
        "internalType": "contract FlammyMintingStation",
        "name": "_flammyMintingStation",
        "type": "address"
      },
      {
        "internalType": "contract IBEP20",
        "name": "_flameToken",
        "type": "address"
      },
      {
        "internalType": "contract DonaswapProfile",
        "name": "_donaswapProfile",
        "type": "address"
      },
      {
        "internalType": "uint256",
        "name": "_maxViewLength",
        "type": "uint256"
      }
    ],
    "stateMutability": "nonpayable",
    "type": "constructor"
  },
  {
    "anonymous": false,
    "inputs": [
      {
        "indexed": true,
        "internalType": "uint8",
        "name": "flammyId",
        "type": "uint8"
      },
      {
        "indexed": false,
        "internalType": "uint256",
        "name": "thresholdUser",
        "type": "uint256"
      },
      {
        "indexed": false,
        "internalType": "uint256",
        "name": "costFlame",
        "type": "uint256"
      }
    ],
    "name": "FlammyAdd",
    "type": "event"
  },
  {
    "anonymous": false,
    "inputs": [
      {
        "indexed": true,
        "internalType": "uint8",
        "name": "flammyId",
        "type": "uint8"
      },
      {
        "indexed": false,
        "internalType": "uint256",
        "name": "thresholdUser",
        "type": "uint256"
      },
      {
        "indexed": false,
        "internalType": "uint256",
        "name": "costFlame",
        "type": "uint256"
      },
      {
        "indexed": false,
        "internalType": "bool",
        "name": "isActive",
        "type": "bool"
      }
    ],
    "name": "FlammyChange",
    "type": "event"
  },
  {
    "anonymous": false,
    "inputs": [
      {
        "indexed": true,
        "internalType": "address",
        "name": "to",
        "type": "address"
      },
      {
        "indexed": true,
        "internalType": "uint256",
        "name": "tokenId",
        "type": "uint256"
      },
      {
        "indexed": true,
        "internalType": "uint8",
        "name": "flammyId",
        "type": "uint8"
      }
    ],
    "name": "FlammyMint",
    "type": "event"
  },
  {
    "anonymous": false,
    "inputs": [
      {
        "indexed": true,
        "internalType": "address",
        "name": "previousOwner",
        "type": "address"
      },
      {
        "indexed": true,
        "internalType": "address",
        "name": "newOwner",
        "type": "address"
      }
    ],
    "name": "OwnershipTransferred",
    "type": "event"
  },
  {
    "inputs": [
      {
        "internalType": "uint8",
        "name": "_flammyId",
        "type": "uint8"
      },
      {
        "internalType": "string",
        "name": "_tokenURI",
        "type": "string"
      },
      {
        "internalType": "uint256",
        "name": "_thresholdUser",
        "type": "uint256"
      },
      {
        "internalType": "uint256",
        "name": "_flameCost",
        "type": "uint256"
      }
    ],
    "name": "addFlammy",
    "outputs": [],
    "stateMutability": "nonpayable",
    "type": "function"
  },
  {
    "inputs": [
      {
        "internalType": "uint8",
        "name": "",
        "type": "uint8"
      }
    ],
    "name": "flammyCharacteristics",
    "outputs": [
      {
        "internalType": "string",
        "name": "tokenURI",
        "type": "string"
      },
      {
        "internalType": "uint256",
        "name": "thresholdUser",
        "type": "uint256"
      },
      {
        "internalType": "uint256",
        "name": "flameCost",
        "type": "uint256"
      },
      {
        "internalType": "bool",
        "name": "isActive",
        "type": "bool"
      },
      {
        "internalType": "bool",
        "name": "isCreated",
        "type": "bool"
      }
    ],
    "stateMutability": "view",
    "type": "function"
  },
  {
    "inputs": [],
    "name": "flammyMintingStation",
    "outputs": [
      {
        "internalType": "contract FlammyMintingStation",
        "name": "",
        "type": "address"
      }
    ],
    "stateMutability": "view",
    "type": "function"
  },
  {
    "inputs": [],
    "name": "flameToken",
    "outputs": [
      {
        "internalType": "contract IBEP20",
        "name": "",
        "type": "address"
      }
    ],
    "stateMutability": "view",
    "type": "function"
  },
  {
    "inputs": [
      {
        "internalType": "address",
        "name": "_userAddress",
        "type": "address"
      },
      {
        "internalType": "uint8[]",
        "name": "_flammyIds",
        "type": "uint8[]"
      }
    ],
    "name": "canClaimMultiple",
    "outputs": [
      {
        "internalType": "bool[]",
        "name": "",
        "type": "bool[]"
      }
    ],
    "stateMutability": "view",
    "type": "function"
  },
  {
    "inputs": [
      {
        "internalType": "address",
        "name": "_userAddress",
        "type": "address"
      },
      {
        "internalType": "uint8",
        "name": "_flammyId",
        "type": "uint8"
      }
    ],
    "name": "canClaimSingle",
    "outputs": [
      {
        "internalType": "bool",
        "name": "",
        "type": "bool"
      }
    ],
    "stateMutability": "view",
    "type": "function"
  },
  {
    "inputs": [
      {
        "internalType": "uint256",
        "name": "_amount",
        "type": "uint256"
      }
    ],
    "name": "claimFee",
    "outputs": [],
    "stateMutability": "nonpayable",
    "type": "function"
  },
  {
    "inputs": [
      {
        "internalType": "address",
        "name": "",
        "type": "address"
      },
      {
        "internalType": "uint8",
        "name": "",
        "type": "uint8"
      }
    ],
    "name": "hasClaimed",
    "outputs": [
      {
        "internalType": "bool",
        "name": "",
        "type": "bool"
      }
    ],
    "stateMutability": "view",
    "type": "function"
  },
  {
    "inputs": [],
    "name": "maxViewLength",
    "outputs": [
      {
        "internalType": "uint256",
        "name": "",
        "type": "uint256"
      }
    ],
    "stateMutability": "view",
    "type": "function"
  },
  {
    "inputs": [
      {
        "internalType": "uint8",
        "name": "_flammyId",
        "type": "uint8"
      }
    ],
    "name": "mintNFT",
    "outputs": [],
    "stateMutability": "nonpayable",
    "type": "function"
  },
  {
    "inputs": [],
    "name": "numberDifferentFlammies",
    "outputs": [
      {
        "internalType": "uint256",
        "name": "",
        "type": "uint256"
      }
    ],
    "stateMutability": "view",
    "type": "function"
  },
  {
    "inputs": [],
    "name": "owner",
    "outputs": [
      {
        "internalType": "address",
        "name": "",
        "type": "address"
      }
    ],
    "stateMutability": "view",
    "type": "function"
  },
  {
    "inputs": [],
    "name": "donaswapProfile",
    "outputs": [
      {
        "internalType": "contract DonaswapProfile",
        "name": "",
        "type": "address"
      }
    ],
    "stateMutability": "view",
    "type": "function"
  },
  {
    "inputs": [],
    "name": "renounceOwnership",
    "outputs": [],
    "stateMutability": "nonpayable",
    "type": "function"
  },
  {
    "inputs": [
      {
        "internalType": "address",
        "name": "newOwner",
        "type": "address"
      }
    ],
    "name": "transferOwnership",
    "outputs": [],
    "stateMutability": "nonpayable",
    "type": "function"
  },
  {
    "inputs": [
      {
        "internalType": "uint8",
        "name": "_flammyId",
        "type": "uint8"
      },
      {
        "internalType": "uint256",
        "name": "_thresholdUser",
        "type": "uint256"
      },
      {
        "internalType": "uint256",
        "name": "_flameCost",
        "type": "uint256"
      },
      {
        "internalType": "bool",
        "name": "_isActive",
        "type": "bool"
      }
    ],
    "name": "updateFlammy",
    "outputs": [],
    "stateMutability": "nonpayable",
    "type": "function"
  },
  {
    "inputs": [
      {
        "internalType": "uint256",
        "name": "_newMaxViewLength",
        "type": "uint256"
      }
    ],
    "name": "updateMaxViewLength",
    "outputs": [],
    "stateMutability": "nonpayable",
    "type": "function"
  }
]
